﻿Artikelnr.,Ordercode,RoHS-compatibel?,Uw art.nr.,Opmerkingen,Hoeveelheid,Artikelnummer fabrikant,Naam fabrikant,Fabrikant / beschrijving,Beschikbaarheid,Prijs per stuk,Artikelprijs,Prijs na korting
1,1564939,RoHS: YES / FTALATEN: YES,,,1.0,"LF412CD .",TEXAS INSTRUMENTS,"TEXAS INSTRUMENTS  Operational Amplifier, Dual, 2 Amplifier, 3 MHz, 13 V/µs, ± 3.5V to ± 18V, SOIC, 8 Pins",5820,0.9150,0.92,,
2,2382612,RoHS: YES / FTALATEN: YES,,,5.0,"LM833DT",STMICROELECTRONICS,"STMICROELECTRONICS  Operational Amplifier, Dual, 2 Amplifier, 15 MHz, 7 V/µs, ± 2.5V to ± 15V, SOIC, 8 Pins",1003,0.3590,1.80,,
3,3010839,RoHS: YES / FTALATEN: YES,,,1.0,"LM4565FVM-GTR",ROHM,"ROHM  Operational Amplifier, 2 Amplifier, 10 MHz, 5 V/µs, 4V to 36V, ± 2V to ± 18V, MSOP, 8 Pins",59,0.5020,0.50,,
4,2980871,RoHS: YES / FTALATEN: YES,,,1.0,"LDK320AM120R",STMICROELECTRONICS,"STMICROELECTRONICS  Fixed LDO Voltage Regulator, 2.5V to 18V, 100mV drop, 12V/0.2A out, SOT-23-5",2729,0.6300,0.63,,
5,3007549,RoHS: YES / FTALATEN: YES,,,1.0,"LM2990SX-12/NOPB",TEXAS INSTRUMENTS,"TEXAS INSTRUMENTS  Fixed LDO Voltage Regulator, -26 V to -6 V, 600 mV Dropout, -12 V / 1 A out, TO-263-3",866,3.0800,3.08,,
6,1852142,RoHS: YES / FTALATEN: YES,,,2.0,"MCP6L02T-E/MS",MICROCHIP,"MICROCHIP  Operational Amplifier, Dual, 2 Amplifier, 1 MHz, 0.6 V/µs, 1.8V to 6V, MSOP, 8 Pins",6733,0.2790,0.56,,
7,2510225,RoHS: YES / FTALATEN: YES,,,1.0,"MIC5205-5.0YM5-TR",MICROCHIP,"MICROCHIP  Fixed LDO Voltage Regulator, 2.5V to 16V, 165mV Dropout, 5Vout, 150mAout, SOT-23-5",3716,0.3690,0.37,,
8,1515661,RoHS: YES / FTALATEN: YES,,,10.0,"BLM21PG221SN1D",MURATA,"MURATA  Ferrite Bead, 0805 [2012 Metric], 220 ohm, 2 A, BLM21P Series, 0.045 ohm, ± 25%",72380,0.0615,0.62,,
9,1650866,RoHS: YES / FTALATEN: YES,,,30.0,"C0805C104M5RACTU",KEMET,"KEMET  SMD Multilayer Ceramic Capacitor, 0.1 µF, 50 V, 0805 [2012 Metric], ± 20%, X7R, C Series KEMET",3784,0.0494,1.48,,
10,2613991,RoHS: YES / FTALATEN: YES,,,2.0,"MC001294",MULTICOMP PRO,"MULTICOMP PRO  Phone Audio Connector, 5 Contacts, Jack, 3.5 mm, PCB Mount, Silver Plated Contacts",5315,0.8550,1.71,,
11,2825117,RoHS: YES / FTALATEN: TBA,,,5.0,"KST5551MTF",ON SEMICONDUCTOR,"ON SEMICONDUCTOR  Bipolar (BJT) Single Transistor, NPN, 160 V, 300 MHz, 350 mW, 600 mA, 30 hFE",8469 Beschikbaar tot einde voorraad,0.0116,0.06,,
12,1058392,RoHS: YES / FTALATEN: YES,,,5.0,"HSMG-A100-K42J2",BROADCOM,"BROADCOM  LED, Yellow Green, SMD, PLCC-2, 20 mA, 2.2 V, 560 nm",1935,0.2100,1.05,,
13,2292858,RoHS: YES / FTALATEN: YES,,,3.0,"5016",KEYSTONE,"KEYSTONE  PCB Test Point, Compact, Surface Mount, Phosphor Bronze, Silver Plated Contacts",14721,0.3910,1.17,,
14,2797236,RoHS: YES / FTALATEN: YES,,,1.0,"MTL-21-30",LORLIN,"LORLIN  Rotary Switch, Subminiature, 3 Position, 1 Pole, 45 °, 500 mA, 24 V, MT Series",38,4.7400,4.74,,
15,2329274,RoHS: YES / FTALATEN: YES,,,2.0,"3214W-1-223E",BOURNS,"BOURNS  Trimpot, Multi Turn, Cermet, Top Adjust, 22 kohm, Surface Mount, 5 Turns",740,2.5500,5.10,,
16,1649010,RoHS: YES / FTALATEN: YES,,,5.0,"LM1-UHR1-01-N1-00001",CREE,"CREE  LED, Red, SMD, PLCC-2, 20 mA, 2.1 V, 630 nm",34,0.2040,1.02,,
17,150412,RoHS: YES / FTALATEN: YES,,,10.0,"M7565-05",HARWIN,"HARWIN  Jumper (Busbar), Jumper Socket, M20 Connectors, 2 Ways, 2.54 mm",1517,0.1560,1.56,,
18,1593469,RoHS: YES / FTALATEN: YES,,,5.0,"2212S-20SG-85",MULTICOMP PRO,"MULTICOMP PRO  Board-To-Board Connector, 2.54 mm, 20 Contacts, Receptacle, 2212S Series, Through Hole, 1 Rows",13113,0.4260,2.13,,
19,9843680,RoHS: YES / FTALATEN: YES,,,5.0,"1N4148TR",ON SEMICONDUCTOR,"ON SEMICONDUCTOR  Small Signal Diode, Single, 100 V, 200 mA, 1 V, 4 ns, 1 A",739695,0.0574,0.29,,

,,,,,,,Subtotaal,28.77
,,,,,,,Totaal aantal goederen,28.77
,,,,,,,Levering,0.00
,,,,,,,BTW,6.04
,,,,,,,Totaal,34.82
