(module Xmega-HVA-Header (layer F.Cu) (tedit 5D6E6615)
  (fp_text reference REF** (at -22.86 -10.16) (layer F.SilkS)
    (effects (font (size 0.8 0.8) (thickness 0.15)))
  )
  (fp_text value Xmega-HVA-Header (at 0 -2.3) (layer F.Fab)
    (effects (font (size 1 1) (thickness 0.15)))
  )
  (fp_line (start 42.6 -8.875) (end 26.89 -8.88) (layer F.SilkS) (width 0.12))
  (fp_line (start 42.6 11.445) (end 42.6 -8.875) (layer F.SilkS) (width 0.12))
  (fp_line (start 26.85 11.445) (end 42.6 11.445) (layer F.SilkS) (width 0.12))
  (fp_line (start -24.35 -5.65) (end 27.5 -5.65) (layer F.CrtYd) (width 0.05))
  (fp_line (start 24.29 -8.88) (end -24.03 -8.88) (layer F.SilkS) (width 0.12))
  (fp_line (start 27.5 -9.25) (end -24.35 -9.25) (layer F.CrtYd) (width 0.05))
  (fp_line (start -23.93 -8.82) (end 26.235 -8.82) (layer F.Fab) (width 0.1))
  (fp_line (start 26.89 -6.225) (end -24.03 -6.22) (layer F.SilkS) (width 0.12))
  (fp_line (start 26.87 -6.28) (end -23.93 -6.28) (layer F.Fab) (width 0.1))
  (fp_line (start 26.89 -8.88) (end 26.89 -6.225) (layer F.SilkS) (width 0.12))
  (fp_line (start 26.87 -8.185) (end 26.87 -6.28) (layer F.Fab) (width 0.1))
  (fp_line (start -24.35 -9.25) (end -24.35 -5.65) (layer F.CrtYd) (width 0.05))
  (fp_line (start 24.26 -8.88) (end 26.89 -8.88) (layer F.SilkS) (width 0.12))
  (fp_line (start -23.93 -6.28) (end -23.93 -8.82) (layer F.Fab) (width 0.1))
  (fp_line (start 26.235 -8.82) (end 26.87 -8.185) (layer F.Fab) (width 0.1))
  (fp_line (start -24.03 -8.88) (end -24.03 11.45) (layer F.SilkS) (width 0.12))
  (fp_line (start 27.5 -5.65) (end 27.5 -9.25) (layer F.CrtYd) (width 0.05))
  (fp_text user %R (at 0.1 2.2 180) (layer F.Fab)
    (effects (font (size 1 1) (thickness 0.15)))
  )
  (fp_line (start -21.47 11.445) (end -21.47 8.785) (layer F.SilkS) (width 0.12))
  (fp_line (start -24.21 10.75) (end -24.21 8.845) (layer F.Fab) (width 0.1))
  (fp_line (start -21.47 8.785) (end 26.85 8.785) (layer F.SilkS) (width 0.12))
  (fp_line (start -24.64 11.715) (end 27.21 11.715) (layer F.CrtYd) (width 0.05))
  (fp_line (start 26.59 8.845) (end 26.59 11.385) (layer F.Fab) (width 0.1))
  (fp_line (start -23.575 11.385) (end -24.21 10.75) (layer F.Fab) (width 0.1))
  (fp_line (start -24.21 8.845) (end 26.59 8.845) (layer F.Fab) (width 0.1))
  (fp_line (start -24.64 8.115) (end -24.64 11.715) (layer F.CrtYd) (width 0.05))
  (fp_line (start 27.21 8.115) (end -24.64 8.115) (layer F.CrtYd) (width 0.05))
  (fp_line (start 26.85 11.445) (end 26.85 8.785) (layer F.SilkS) (width 0.12))
  (fp_line (start 27.21 11.715) (end 27.21 8.115) (layer F.CrtYd) (width 0.05))
  (fp_line (start -21.47 11.445) (end 26.85 11.445) (layer F.SilkS) (width 0.12))
  (fp_line (start 26.59 11.385) (end -23.575 11.385) (layer F.Fab) (width 0.1))
  (fp_line (start -22.85 11.45) (end -24.03 11.45) (layer F.SilkS) (width 0.12))
  (pad 35 thru_hole oval (at -10.16 -7.62 270) (size 1.7 1.7) (drill 1) (layers *.Cu *.Mask))
  (pad 25 thru_hole oval (at 15.24 -7.62 270) (size 1.7 1.7) (drill 1) (layers *.Cu *.Mask))
  (pad 36 thru_hole oval (at -12.7 -7.62 270) (size 1.7 1.7) (drill 1) (layers *.Cu *.Mask))
  (pad 39 thru_hole oval (at -20.32 -7.62 270) (size 1.7 1.7) (drill 1) (layers *.Cu *.Mask))
  (pad 22 thru_hole oval (at 22.86 -7.62 270) (size 1.7 1.7) (drill 1) (layers *.Cu *.Mask))
  (pad 32 thru_hole oval (at -2.54 -7.62 270) (size 1.7 1.7) (drill 1) (layers *.Cu *.Mask))
  (pad 27 thru_hole oval (at 10.16 -7.62 270) (size 1.7 1.7) (drill 1) (layers *.Cu *.Mask))
  (pad 30 thru_hole oval (at 2.54 -7.62 270) (size 1.7 1.7) (drill 1) (layers *.Cu *.Mask))
  (pad 31 thru_hole oval (at 0 -7.62 270) (size 1.7 1.7) (drill 1) (layers *.Cu *.Mask))
  (pad 26 thru_hole oval (at 12.7 -7.62 270) (size 1.7 1.7) (drill 1) (layers *.Cu *.Mask))
  (pad 40 thru_hole oval (at -22.86 -7.62 270) (size 1.7 1.7) (drill 1) (layers *.Cu *.Mask))
  (pad 24 thru_hole oval (at 17.78 -7.62 270) (size 1.7 1.7) (drill 1) (layers *.Cu *.Mask))
  (pad 38 thru_hole oval (at -17.78 -7.62 270) (size 1.7 1.7) (drill 1) (layers *.Cu *.Mask))
  (pad 37 thru_hole oval (at -15.24 -7.62 270) (size 1.7 1.7) (drill 1) (layers *.Cu *.Mask))
  (pad 34 thru_hole oval (at -7.62 -7.62 270) (size 1.7 1.7) (drill 1) (layers *.Cu *.Mask))
  (pad 29 thru_hole oval (at 5.08 -7.62 270) (size 1.7 1.7) (drill 1) (layers *.Cu *.Mask))
  (pad 33 thru_hole oval (at -5.08 -7.62 270) (size 1.7 1.7) (drill 1) (layers *.Cu *.Mask))
  (pad 21 thru_hole circle (at 25.4 -7.62 270) (size 1.7 1.7) (drill 1) (layers *.Cu *.Mask))
  (pad 23 thru_hole oval (at 20.32 -7.62 270) (size 1.7 1.7) (drill 1) (layers *.Cu *.Mask))
  (pad 28 thru_hole oval (at 7.62 -7.62 270) (size 1.7 1.7) (drill 1) (layers *.Cu *.Mask))
  (pad 1 thru_hole rect (at -22.86 10.16 90) (size 1.7 1.7) (drill 1) (layers *.Cu *.Mask))
  (pad 2 thru_hole oval (at -20.32 10.16 90) (size 1.7 1.7) (drill 1) (layers *.Cu *.Mask))
  (pad 3 thru_hole oval (at -17.78 10.16 90) (size 1.7 1.7) (drill 1) (layers *.Cu *.Mask))
  (pad 4 thru_hole oval (at -15.24 10.16 90) (size 1.7 1.7) (drill 1) (layers *.Cu *.Mask))
  (pad 12 thru_hole oval (at 5.08 10.16 90) (size 1.7 1.7) (drill 1) (layers *.Cu *.Mask))
  (pad 10 thru_hole oval (at 0 10.16 90) (size 1.7 1.7) (drill 1) (layers *.Cu *.Mask))
  (pad 11 thru_hole oval (at 2.54 10.16 90) (size 1.7 1.7) (drill 1) (layers *.Cu *.Mask))
  (pad 6 thru_hole oval (at -10.16 10.16 90) (size 1.7 1.7) (drill 1) (layers *.Cu *.Mask))
  (pad 14 thru_hole oval (at 10.16 10.16 90) (size 1.7 1.7) (drill 1) (layers *.Cu *.Mask))
  (pad 15 thru_hole oval (at 12.7 10.16 90) (size 1.7 1.7) (drill 1) (layers *.Cu *.Mask))
  (pad 17 thru_hole oval (at 17.78 10.16 90) (size 1.7 1.7) (drill 1) (layers *.Cu *.Mask))
  (pad 18 thru_hole oval (at 20.32 10.16 90) (size 1.7 1.7) (drill 1) (layers *.Cu *.Mask))
  (pad 19 thru_hole oval (at 22.86 10.16 90) (size 1.7 1.7) (drill 1) (layers *.Cu *.Mask))
  (pad 9 thru_hole oval (at -2.54 10.16 90) (size 1.7 1.7) (drill 1) (layers *.Cu *.Mask))
  (pad 16 thru_hole oval (at 15.24 10.16 90) (size 1.7 1.7) (drill 1) (layers *.Cu *.Mask))
  (pad 13 thru_hole oval (at 7.62 10.16 90) (size 1.7 1.7) (drill 1) (layers *.Cu *.Mask))
  (pad 5 thru_hole oval (at -12.7 10.16 90) (size 1.7 1.7) (drill 1) (layers *.Cu *.Mask))
  (pad 7 thru_hole oval (at -7.62 10.16 90) (size 1.7 1.7) (drill 1) (layers *.Cu *.Mask))
  (pad 20 thru_hole oval (at 25.4 10.16 90) (size 1.7 1.7) (drill 1) (layers *.Cu *.Mask))
  (pad 8 thru_hole oval (at -5.08 10.16 90) (size 1.7 1.7) (drill 1) (layers *.Cu *.Mask))
  (model ${KISYS3DMOD}/Module.3dshapes/Xmega-HVA_with_headers.step
    (offset (xyz 42 -11 10))
    (scale (xyz 1 1 1))
    (rotate (xyz 0 0 -90))
  )
)
